1234UID4321,testuser1@gmail.com,Andres Ibarra, 305-804-1463, 0.0,pass
123UID321,testuser2@gmail.com,Jamine Guo, 305-804-1463, 0.0,pass
12UID21,testuser3@gmail.com,Evan Schwalb, 305-804-1463, 0.0,pass
Andy123,andybara@hotmail.com,Andy Ibarra, 305-704-9473, 4.9,pass
jWright,jamiewright321@yahoo.com,Jamie Wright, 305-305-7462, 1.0,pass
dwalb21,dwalb3@gmail.com,Devan Schwalb, 305-334-3453, 4.0,pass
jb123,jamesbond123@gmail.com,Joey Bond, 805-805-1363, 3.0,pass
wangwang,IamMrWang@gmail.com,Andy Wang, 345-804-1323, 4.7,pass
kd123,KScwalbsss@hotmail.com,Kevin Schwalb, 325-404-7463, 3.4,pass
ssshmuck,schmuckschmuck@yahoo.com,Andres Schmuck, 305-704-1463, 0.0,pass
123gofer321,goofygofer@gmail.com,James Gofer, 305-304-4463, 2.5,pass
ks15d,ks15d@my.fsu.edu,Kelvin Schwalb, 895-774-3263, 1.9,pass
hellyff,hellofirefly@gmail.com,Sharon Ibarra, 888-884-1883, 0.0,pass
ming123,suemeplz@gmail.com,Ming Sue, 305-804-1465, 3.6,pass
landrum3,landrum3@gmail.com,Eric Landrum, 235-834-1433, 4.2,pass
bbb123,bennybenben@gmail.com,Benny Ibarra, 125-804-1463, 0.0,pass
jjjohn,jimmyandjimmy@yahoo.com,Jimmy Johnson, 303-314-1490, 4.3,pass
mcl123,BJLonald@hotmail.com,Benjamin McLonald, 323-812-1463, 5.0,pass
amys1,ASchwartz@gmail.com,Amy Schwartz, 345-854-1233, 0.0,pass
113UID911,jasmine911@gmail.com,Jasmine Yang, 222-804-1443, 1.2,pass
shroud2,edwardinashroud@hotmail.com,Edward Shroud, 343-821-1463, 0.9,pass
x2james,yesitsjamesjames@hotmail.com,James James, 305-894-2263, 4.7,pass
pei123,ericapei123abc@gmail.com,Erica Pei, 305-804-1333, 4.9,pass
saints1,sainestegan@gmail.com,Tegan Saines, 885-124-1463, 2.2,pass
w2mcd,welcome2mcd@gmail.com,Mike Donald, 332-813-1363, 0.0,pass
atieu,ATieu@gmail.com,Anthony Tieu, 322-334-1423, 4.4,pass
teef321,ETeefy@gmail.com,Evan Teefy, 123-844-8863, 2.1,pass
blah123,andreslot@hotmail.com,Andres Lancelot, 315-744-1563, 2.1,pass
jguoj,jguojguo@yahoo.com,Jay Guo, 305-834-1123, 4.8,pass
123keegs,MKeegs@gmail.com,Mitchel Keegan, 335-224-1534, 4.5,pass